{
  "name": "CompanyIndustry",
  "base": "PersistedModel",
  "idInjection": false,
  "options": {
    "validateUpsert": true
  },
  "mixins": {
    "TimeStamp": true,
    "Uuid": true
  },
  "properties": {
    "id": {
      "type": "string",
      "length": 36,
      "required": true,
      "id": true
    },
    "companyId": {
      "type": "string",
      "length": 36,
      "required": true
    },
    "industryId": {
      "type": "string",
      "length": 36,
      "required": true
    }
  },
  "relations": {
    "company": {
      "type": "belongsTo",
      "model": "Company",
      "foreignKey": "companyId",
      "primaryKey": "id"
    },
    "industry": {
      "type": "belongsTo",
      "model": "Industry",
      "foreignKey": "industryId",
      "primaryKey": "id"
    }
  },
  "foreignKeys": {
    "companyIndustry_company": {
      "name": "fk_companyIndustry_company",
      "foreignKey": "companyId",
      "entity": "Company",
      "entityKey": "id"
    },
    "companyIndustry_industry": {
      "name": "fk_companyIndustry_industry",
      "foreignKey": "industryId",
      "entity": "Industry",
      "entityKey": "id"
    }
  },
  "indexes": {
    "companyId_industryId_unique": {
      "keys": {
        "companyId": 1,
        "industryId": 1
      },
      "options": {
        "unique": true
      }
    }
  },
  "validations": [],
  "acls": []
}
